ST558_HW8
…
table(bike$seasons, bike$holiday)/24

         Holiday No Holiday
  Autumn       5         86
  Spring       3         89
  Summer       2         90
  Winter       8         82

Mean number of bikes rented per hour

bike |>
  group_by(hour)|>
  summarize(mean_rented = mean(bike_count))

# A tibble: 24 × 2
    hour mean_rented
   <int>       <dbl>
 1     0        541.
 2     1        426.
 3     2        302.
 4     3        203.
 5     4        133.
 6     5        139.
 7     6        288.
 8     7        606.
 9     8       1016.
10     9        646.
# ℹ 14 more rows
…
`summarise()` has grouped output by 'date', 'seasons'. You can override using
the `.groups` argument.

bike_day 

# A tibble: 353 × 12
   date       seasons holiday  bike_count    temp humidity wind_speed visibility
   <date>     <fct>   <fct>         <int>   <dbl>    <dbl>      <dbl>      <dbl>
 1 2017-12-01 Winter  No Holi…       9539 -2.45       45.9      1.54       1871.
 2 2017-12-02 Winter  No Holi…       8523  1.32       62.0      1.71       1471.
 3 2017-12-03 Winter  No Holi…       7222  4.88       81.5      1.61        456.
 4 2017-12-04 Winter  No Holi…       8729 -0.304      52.5      3.45       1363.
 5 2017-12-05 Winter  No Holi…       8307 -4.46       36.4      1.11       1959.
 6 2017-12-06 Winter  No Holi…       6669  0.0458     70.8      0.696      1187.
 7 2017-12-07 Winter  No Holi…       8549  1.09       67.5      1.69        949.
 8 2017-12-08 Winter  No Holi…       8032 -3.82       41.8      1.85       1872.
 9 2017-12-09 Winter  No Holi…       7233 -0.846      46        1.08       1861.
10 2017-12-10 Winter  No Holi…       3453  1.19       69.7      2.00       1043.
# ℹ 343 more rows
# ℹ 4 more variables: dew_point_temp <dbl>, solar_radiation <dbl>,
#   rainfall <dbl>, snowfall <dbl>
…
── Conflicts ───────────────────────────────────────── tidymodels_conflicts() ──
✖ scales::discard() masks purrr::discard()
✖ dplyr::filter()   masks stats::filter()
✖ recipes::fixed()  masks stringr::fixed()
✖ dplyr::lag()      masks stats::lag()
✖ yardstick::spec() masks readr::spec()
✖ recipes::step()   masks stats::step()

set.seed(10)
bike_split <- initial_split(bike_day, prop = 0.75, strata = seasons) #split the training and test set 75/25
bike_train <- training(bike_split)
bike_test <- testing(bike_split)
bike_train

# A tibble: 263 × 12
   date       seasons holiday    bike_count  temp humidity wind_speed visibility
   <date>     <fct>   <fct>           <int> <dbl>    <dbl>      <dbl>      <dbl>
 1 2018-09-02 Autumn  No Holiday      26881  25.0     54.5      1.50       1994.
 2 2018-09-03 Autumn  No Holiday      10802  23.6     82.2      1.06       1504.
 3 2018-09-04 Autumn  No Holiday      29529  23.3     71.6      2.17       1455.
 4 2018-09-07 Autumn  No Holiday      30381  22.2     56.9      2.48       1849.
 5 2018-09-08 Autumn  No Holiday      29813  21.7     48.7      1.67       1982.
 6 2018-09-09 Autumn  No Holiday      28354  22.0     49.5      1.23       1997.
 7 2018-09-11 Autumn  No Holiday      31694  21.6     48.0      1.48       1999.
 8 2018-09-13 Autumn  No Holiday      30991  23.4     62.3      1.23       1986.
 9 2018-09-14 Autumn  No Holiday      28199  23.5     67.2      1.30       1954.
10 2018-09-15 Autumn  No Holiday      25079  23.2     75.9      0.992      1951.
# ℹ 253 more rows
# ℹ 4 more variables: dew_point_temp <dbl>, solar_radiation <dbl>,
#   rainfall <dbl>, snowfall <dbl>
…
first_rec |>
  prep(training = bike_train) |>
  bake(bike_train)

# A tibble: 263 × 15
   date        temp humidity wind_speed visibility dew_point_temp
   <date>     <dbl>    <dbl>      <dbl>      <dbl>          <dbl>
 1 2018-09-02 1.03   -0.248     -0.363      1.17            0.833
 2 2018-09-03 0.908   1.63      -1.11       0.194           1.24 
 3 2018-09-04 0.878   0.913      0.753      0.0953          1.00 
 4 2018-09-07 0.784  -0.0891     1.28       0.882           0.656
 5 2018-09-08 0.745  -0.647     -0.0894     1.15            0.436
 6 2018-09-09 0.767  -0.593     -0.820      1.18            0.471
 7 2018-09-11 0.734  -0.695     -0.412      1.18            0.442
 8 2018-09-13 0.894   0.279     -0.834      1.16            0.887
 9 2018-09-14 0.896   0.613     -0.700      1.09            0.980
10 2018-09-15 0.875   1.20      -1.23       1.09            1.12 
# ℹ 253 more rows
# ℹ 9 more variables: solar_radiation <dbl>, rainfall <dbl>, snowfall <dbl>,
#   bike_count <int>, seasons_Spring <dbl>, seasons_Summer <dbl>,
#   seasons_Winter <dbl>, holiday_No.Holiday <dbl>, weekday_end_Weekend <dbl>
…
sec_rec |>
  prep(training = bike_train) |>
  bake(bike_train)

# A tibble: 263 × 22
   date        temp humidity wind_speed visibility dew_point_temp
   <date>     <dbl>    <dbl>      <dbl>      <dbl>          <dbl>
 1 2018-09-02 1.03   -0.248     -0.363      1.17            0.833
 2 2018-09-03 0.908   1.63      -1.11       0.194           1.24 
 3 2018-09-04 0.878   0.913      0.753      0.0953          1.00 
 4 2018-09-07 0.784  -0.0891     1.28       0.882           0.656
 5 2018-09-08 0.745  -0.647     -0.0894     1.15            0.436
 6 2018-09-09 0.767  -0.593     -0.820      1.18            0.471
 7 2018-09-11 0.734  -0.695     -0.412      1.18            0.442
 8 2018-09-13 0.894   0.279     -0.834      1.16            0.887
 9 2018-09-14 0.896   0.613     -0.700      1.09            0.980
10 2018-09-15 0.875   1.20      -1.23       1.09            1.12 
# ℹ 253 more rows
# ℹ 16 more variables: solar_radiation <dbl>, rainfall <dbl>, snowfall <dbl>,
#   bike_count <int>, seasons_Spring <dbl>, seasons_Summer <dbl>,
#   seasons_Winter <dbl>, holiday_No.Holiday <dbl>, weekday_end_Weekend <dbl>,
#   holiday_No.Holiday_x_seasons_Spring <dbl>,
#   holiday_No.Holiday_x_seasons_Summer <dbl>,
#   holiday_No.Holiday_x_seasons_Winter <dbl>, seasons_Spring_x_temp <dbl>, …
…
third_rec |>
  prep(training = bike_train) |>
  bake(bike_train)

# A tibble: 263 × 30
   date       bike_count seasons_Spring seasons_Summer seasons_Winter
   <date>          <int>          <dbl>          <dbl>          <dbl>
 1 2018-09-02      26881         -0.584         -0.595         -0.584
 2 2018-09-03      10802         -0.584         -0.595         -0.584
 3 2018-09-04      29529         -0.584         -0.595         -0.584
 4 2018-09-07      30381         -0.584         -0.595         -0.584
 5 2018-09-08      29813         -0.584         -0.595         -0.584
 6 2018-09-09      28354         -0.584         -0.595         -0.584
 7 2018-09-11      31694         -0.584         -0.595         -0.584
 8 2018-09-13      30991         -0.584         -0.595         -0.584
 9 2018-09-14      28199         -0.584         -0.595         -0.584
10 2018-09-15      25079         -0.584         -0.595         -0.584
# ℹ 253 more rows
# ℹ 25 more variables: holiday_No.Holiday <dbl>, weekday_end_Weekend <dbl>,
#   holiday_No.Holiday_x_seasons_Spring <dbl>,
#   holiday_No.Holiday_x_seasons_Summer <dbl>,
#   holiday_No.Holiday_x_seasons_Winter <dbl>, seasons_Spring_x_temp <dbl>,
#   seasons_Summer_x_temp <dbl>, seasons_Winter_x_temp <dbl>,
#   temp_x_rainfall <dbl>, temp_poly_1 <dbl>, temp_poly_2 <dbl>, …
…
# A tibble: 2 × 4
  .metric .estimator .estimate .config        
  <chr>   <chr>          <dbl> <chr>          
1 rmse    standard    2963.    pre0_mod0_post0
2 rsq     standard       0.918 pre0_mod0_post0

Finally, we obtain the final model coefficients using tidy() and extract_fit_parsnip()

best_fit |>
  tidy()

# A tibble: 29 × 5
   term                                estimate std.error statistic  p.value
   <chr>                                  <dbl>     <dbl>     <dbl>    <dbl>
 1 (Intercept)                           21360.     1573.    13.6   2.33e-31
 2 seasons_Spring                        -1712.      264.    -6.49  4.93e-10
 3 seasons_Summer                         7669.      942.     8.14  2.27e-14
 4 seasons_Winter                        -4766.     1053.    -4.53  9.47e- 6
 5 holiday_No.Holiday                      879.      206.     4.27  2.84e- 5
 6 weekday_end_Weekend                   -1132.      181.    -6.27  1.76e- 9
 7 holiday_No.Holiday_x_seasons_Spring    -139.      270.    -0.513 6.08e- 1
 8 holiday_No.Holiday_x_seasons_Summer    -170.      256.    -0.664 5.07e- 1
 9 holiday_No.Holiday_x_seasons_Winter    -390.      193.    -2.03  4.40e- 2
10 seasons_Spring_x_temp                  2574.      469.     5.48  1.08e- 7
# ℹ 19 more rows
…
